^C:\USERS\MAGSHIMIM\DOCUMENTS\MAGSHIMIM\כיתה יא\C++\EXE11\EXE11\THREADS.CPP
/c /ZI /nologo /W3 /WX- /diagnostics:classic /sdl /Od /Oy- /D _MBCS /Gm- /EHsc /RTC1 /MDd /GS /fp:precise /permissive- /Zc:wchar_t /Zc:forScope /Zc:inline /Fo"DEBUG\\" /Fd"DEBUG\VC141.PDB" /Gd /TP /analyze- /FC C:\USERS\MAGSHIMIM\DOCUMENTS\MAGSHIMIM\כיתה יא\C++\EXE11\EXE11\THREADS.CPP
^C:\USERS\MAGSHIMIM\DOCUMENTS\MAGSHIMIM\כיתה יא\C++\EXE11\EXE11\MAIN.CPP
/c /ZI /nologo /W3 /WX- /diagnostics:classic /sdl /Od /Oy- /D _MBCS /Gm- /EHsc /RTC1 /MDd /GS /fp:precise /permissive- /Zc:wchar_t /Zc:forScope /Zc:inline /Fo"DEBUG\\" /Fd"DEBUG\VC141.PDB" /Gd /TP /analyze- /FC C:\USERS\MAGSHIMIM\DOCUMENTS\MAGSHIMIM\כיתה יא\C++\EXE11\EXE11\MAIN.CPP
